!table
!version 300
!charset WindowsCyrillic

Definition Table
  File "wms_tile_z2_x0_5_y0_2.png"
  Type "RASTER"
  (40075016,0) (1536,768) Label "point 1",
  (0,0) (0,768) Label "point 2",
  (0,19994875) (0,0) Label "point 3",
  (40075016,19994875) (1536,0) Label "point 4"
  CoordSys Earth Projection 10, 104, "m", 0
  RasterStyle 4 1
  RasterStyle 7 0