 
 
 
@FK_sql_drop - 
@DF_sql_drop - 
@Index_sql_drop - 
ALTER TABLE dbo.PMP_CalcRegionCells DROP COLUMN [pmp_sector_id]
 
 
 
@FK_sql_drop - 
@DF_sql_drop - 
@Index_sql_drop - 
ALTER TABLE dbo.Template_LinkEnd DROP COLUMN [Modulation_type]
 
 
